…
**2. Use group_by and summarise to find the median protein level and the
median absolute deviation of the protein level for each marker. (Use the
R functions median and mad).**

``` r
protein_summary <- cytof_long %>%
  group_by(Protein) %>%
  summarise(
    Median = median(Amount, na.rm = TRUE),
    MAD = mad(Amount, na.rm = TRUE)
  )
protein_summary
```

    ## # A tibble: 35 × 3
    ##    Protein  Median   MAD
    ##    <chr>     <dbl> <dbl>
    ##  1 CD107a  -0.122  0.609
    ##  2 CD16     5.12   0.874
    ##  3 CD161    0.726  1.69 
    ##  4 CD2      3.95   1.68 
    ##  5 CD4     -0.204  0.395
    ##  6 CD56     5.71   0.998
    ##  7 CD57     3.07   1.99 
    ##  8 CD69     4.59   1.02 
    ##  9 CD8      2.40   2.29 
    ## 10 CXCR6   -0.0581 0.727
    ## # ℹ 25 more rows
…
