…
### Join Datasets

``` r
tuberculosis <- left_join(who_tidy, population_tidy, by = c("country", "year"))
```

### Removing the unnecessary variables from the Tuberculosis Dataset

``` r
tuberculosis <- tuberculosis %>% drop_na()
tuberculosis
```

    ## # A tibble: 72,402 × 9
    ##    country     iso2  iso3   year type  cases sex   age_group population
    ##    <chr>       <chr> <chr> <dbl> <chr> <dbl> <chr> <chr>          <dbl>
    ##  1 Afghanistan AF    AFG    1997 sp        0 m     014         19021226
    ##  2 Afghanistan AF    AFG    1997 sp       10 m     1524        19021226
    ##  3 Afghanistan AF    AFG    1997 sp        6 m     2534        19021226
    ##  4 Afghanistan AF    AFG    1997 sp        3 m     3544        19021226
    ##  5 Afghanistan AF    AFG    1997 sp        5 m     4554        19021226
    ##  6 Afghanistan AF    AFG    1997 sp        2 m     5564        19021226
    ##  7 Afghanistan AF    AFG    1997 sp        0 m     65          19021226
    ##  8 Afghanistan AF    AFG    1997 sp        5 f     014         19021226
    ##  9 Afghanistan AF    AFG    1997 sp       38 f     1524        19021226
    ## 10 Afghanistan AF    AFG    1997 sp       36 f     2534        19021226
    ## # ℹ 72,392 more rows
…
The table above shows the highest cases of TB in the 21st century in
100,000 per people. From the table, it is shown that **Samoa** has the
highest TB cases in **2009**, with a total number of **601.5029.**

### Reviewing the Lowest Case of Tub

``` r
low_case
```

    ## # A tibble: 10,600 × 10
    ##    country     iso2  iso3   year type  cases sex   age_group population
    ##    <chr>       <chr> <chr> <dbl> <chr> <dbl> <chr> <chr>          <dbl>
    ##  1 Afghanistan AF    AFG    1997 sp        0 m     014         19021226
    ##  2 Afghanistan AF    AFG    1997 sp        0 m     65          19021226
    ##  3 Afghanistan AF    AFG    1997 sp        0 f     5564        19021226
    ##  4 Afghanistan AF    AFG    2007 sn        0 m     014         26349243
    ##  5 Afghanistan AF    AFG    2007 sn        0 m     1524        26349243
    ##  6 Afghanistan AF    AFG    2007 sn        0 m     2534        26349243
    ##  7 Afghanistan AF    AFG    2007 sn        0 m     3544        26349243
    ##  8 Afghanistan AF    AFG    2007 sn        0 m     4554        26349243
    ##  9 Afghanistan AF    AFG    2007 sn        0 m     5564        26349243
    ## 10 Afghanistan AF    AFG    2007 sn        0 m     65          26349243
    ## # ℹ 10,590 more rows
    ## # ℹ 1 more variable: cases_per_100k <dbl>
…
