…
# 1 Case Study: Bone Mineral Density

### 1.1 Import Data

``` r
bmd_file <- "C:/Users/naomi/Downloads/bmd-data.xlsx"

bmd_raw <- read_excel(bmd_file)

bmd_raw
```

    ## # A tibble: 169 × 9
    ##    idnum   age sex   fracture weight_kg height_cm medication waiting_time spnbmd
    ##    <dbl> <dbl> <chr> <chr>        <dbl>     <dbl> <chr>             <dbl>  <dbl>
    ##  1   469  57.1 F     no frac…        64      156. Anticonvu…           18  0.879
    ##  2  8724  75.7 F     no frac…        78      162  No medica…           56  0.795
    ##  3  6736  70.8 M     no frac…        73      170. No medica…           10  0.907
    ##  4 24180  78.2 F     no frac…        60      148  No medica…           14  0.711
    ##  5 17072  54.2 M     no frac…        55      161  No medica…           20  0.791
    ##  6  3806  77.2 M     no frac…        65      168  No medica…            7  0.730
    ##  7 17106  56.2 M     no frac…        77      159  No medica…           26  1.01 
    ##  8 23834  49.9 F     no frac…        59      150  No medica…            9  0.731
    ##  9  2454  68.4 M     no frac…        64      167  Glucocort…            6  0.689
    ## 10  2088  66.3 M     no frac…        72      160. No medica…           10  0.947
    ## # ℹ 159 more rows
…
bmd
```

    ## # A tibble: 169 × 9
    ##       id   age sex    fracture weight_lbs height medication wait_time bmd_change
    ##    <dbl> <dbl> <fct>  <fct>         <dbl>  <dbl> <fct>          <dbl>      <dbl>
    ##  1    35    56 Female no frac…       68     150. No medica…        18      0.717
    ##  2    55    73 Female no frac…       52     153  No medica…        89      0.713
    ##  3    67    77 Female fracture       52     146  Glucocort…        20      0.560
    ##  4    69    68 Female no frac…       62     159  No medica…        30      1.02 
    ##  5    71    70 Female fracture       68.5   165  No medica…        25      0.866
    ##  6    77    78 Female no frac…       50     152  No medica…        24      0.612
    ##  7    87    83 Female fracture       51     150  No medica…         9      0.555
    ##  8   103    78 Female fracture       61     150  No medica…         7      0.542
    ##  9   109    69 Female no frac…       72     154  No medica…        11      0.786
    ## 10   134    50 Female no frac…       72     160. No medica…        60      0.985
    ## # ℹ 159 more rows
…
